dump.vcd
$date
	Sat Mar 15 03:16:54 2025
$end
$version
	QuestaSim Version 2024.3_1
$end
$timescale
	1ns
$end

$scope module top $end
$var reg 1 ! clock $end
$var reg 1 " reset $end

$scope module ALU $end
$var wire 1 # A [7] $end
$var wire 1 $ A [6] $end
$var wire 1 % A [5] $end
$var wire 1 & A [4] $end
$var wire 1 ' A [3] $end
$var wire 1 ( A [2] $end
$var wire 1 ) A [1] $end
$var wire 1 * A [0] $end
$var wire 1 + ALU_Sel [1] $end
$var wire 1 , ALU_Sel [0] $end
$var wire 1 - B [7] $end
$var wire 1 . B [6] $end
$var wire 1 / B [5] $end
$var wire 1 0 B [4] $end
$var wire 1 1 B [3] $end
$var wire 1 2 B [2] $end
$var wire 1 3 B [1] $end
$var wire 1 4 B [0] $end
$var wire 1 5 clock $end
$var wire 1 6 reset $end
$var wire 9 7 tmp [8:0] $end
$var reg 8 8 ALU_Out [7:0] $end
$var reg 8 9 ALU_Result [7:0] $end
$var reg 1 : CarryOut $end
$upscope $end

$scope module alu_test $end
$upscope $end

$scope module vif $end
$var wire 1 5 clock $end
$var wire 1 6 reset $end
$var reg 8 ; A [7:0] $end
$var reg 8 < ALU_Out [7:0] $end
$var reg 2 = ALU_Sel [1:0] $end
$var reg 8 > B [7:0] $end
$upscope $end
$upscope $end
$enddefinitions $end
#0
$dumpvars
bx 7
x,
x+
x4
x3
x2
x1
x0
x/
x.
x-
x*
x)
x(
x'
x&
x%
x$
x#
16
05
0!
1"
b0 8
bx 9
0:
bx ;
b0 <
bx =
bx >
$end
#2
1!
15
b100 ;
b100 >
b10 =
0,
1+
04
03
12
01
00
0/
0.
0-
0*
0)
1(
0'
0&
0%
0$
0#
b1000 7
b10000 9
#4
0!
05
#5
0"
06
#6
1!
15
b10000 8
b10000 <
b1010 ;
b1010 >
b1 =
1,
0+
13
02
11
1)
0(
1'
b10100 7
b0 9
#8
0!
05
#10
1!
15
b0 8
b0 <
b11 ;
b10 =
0,
1+
1*
0'
b1101 7
b11110 9
#12
0!
05
#14
1!
15
b11110 8
b11110 <
b1001 ;
b11 >
b11 =
1,
14
01
0)
1'
b1100 7
b11 9
#16
0!
05
#18
1!
15
b11 8
b11 <
b1010 ;
b110 >
b10 =
0,
04
12
0*
1)
b10000 7
b111100 9
#20
0!
05
#22
1!
15
b111100 8
b111100 <
b11 ;
b10 >
b11 =
1,
02
1*
0'
b101 7
b1 9
#24
0!
05
#26
1!
15
b1 8
b1 <
b101 >
b1 =
0+
14
03
12
b1000 7
b11111110 9
#28
0!
05
#30
1!
15
b11111110 8
b11111110 <
b10 ;
b11 >
13
02
0*
b101 7
b11111111 9
#32
0!
05
#34
1!
15
b11111111 8
b11111111 <
b1001 ;
b111 >
b10 =
0,
1+
12
1*
0)
1'
b10000 7
b111111 9
#36
0!
05
#38
1!
15
b111111 8
b111111 <
b100 ;
b1001 >
b0 =
0+
03
02
11
0*
1(
0'
b1101 7
b1101 9
#40
0!
05
#42
1!
15
b1101 8
b1101 <
b110 ;
b1010 >
b1 =
1,
04
13
1)
b10000 7
b11111100 9
#44
0!
05
#46
1!
15
b11111100 8
b11111100 <
b111 ;
b11 >
b0 =
0,
14
01
1*
b1010 7
b1010 9
#48
0!
05
#50
1!
15
b1010 8
b1010 <
b110 >
b10 =
1+
04
12
b1101 7
b101010 9
#52
0!
05
#54
1!
15
b101010 8
b101010 <
b1001 ;
b1010 >
02
11
0)
0(
1'
b10011 7
b1011010 9
#56
0!
05
#58
1!
15
b1011010 8
b1011010 <
b1 ;
b111 >
b0 =
0+
14
12
01
0'
b1000 7
b1000 9
#60
0!
05
#62
1!
15
b1000 8
b1000 <
b101 ;
b1000 >
b1 =
1,
04
03
02
11
1(
b1101 7
b11111101 9
#64
0!
05
#66
1!
15
b11111101 8
b11111101 <
b100 ;
b111 >
b0 =
0,
14
13
12
01
0*
b1011 7
b1011 9
#68
0!
05
#70
1!
15
b1011 8
b1011 <
b1000 >
b1 =
1,
04
03
02
11
b1100 7
b11111100 9
#72
0!
05
#74
1!
15
b11111100 8
b11111100 <
b101 ;
b110 >
13
12
01
1*
b1011 7
b11111111 9
#76
0!
05
#78
1!
15
b11111111 8
b11111111 <
b10 ;
b100 >
b10 =
0,
1+
03
0*
1)
0(
b110 7
b1000 9
#80
0!
05
#82
1!
15
b1000 8
b1000 <
b1001 ;
b0 =
0+
1*
0)
1'
b1101 7
b1101 9
#84
0!
05
#86
1!
15
b1101 8
b1101 <
b101 ;
1(
0'
b1001 7
b1001 9
#88
0!
05
#90
1!
15
b1001 8
b1001 <
b11 ;
b1 =
1,
1)
0(
b111 7
b11111111 9
#92
0!
05
#94
1!
15
b11111111 8
b11111111 <
b101 ;
b1010 >
b11 =
1+
13
02
11
0)
1(
b1111 7
b0 9
#96
0!
05
#98
1!
15
b0 8
b0 <
b1001 ;
b110 >
b1 =
0+
12
01
0(
1'
b11 9
#100
0!
05
#102
1!
15
b11 8
b11 <
b1000 >
b10 =
0,
1+
03
02
11
b10001 7
b1001000 9
#104
0!
05
#106
1!
15
b1001000 8
b1001000 <
b1010 ;
b110 >
b0 =
0+
13
12
01
0*
1)
b10000 7
b10000 9
#108
0!
05
#110
1!
15
b10000 8
b10000 <
b1 ;
b1001 >
14
03
02
11
1*
0)
0'
b1010 7
b1010 9
#112
0!
05
#114
1!
15
b1010 8
b1010 <
b11 ;
b11 =
1,
1+
1)
b1100 7
b0 9
#116
0!
05
#118
1!
15
b0 8
b0 <
b1 ;
b110 >
b1 =
0+
04
13
12
01
0)
b111 7
b11111011 9
#120
0!
05
#122
1!
15
b11111011 8
b11111011 <
b1000 >
b11 =
1+
03
02
11
b1001 7
b0 9
#124
0!
05
#126
1!
15
b0 8
b0 <
b111 ;
b11 >
b10 =
0,
14
13
01
1)
1(
b1010 7
b10101 9
#128
0!
05
#130
1!
15
b10101 8
b10101 <
b11 ;
b1000 >
04
03
11
0(
b1011 7
b11000 9
#132
0!
05
#134
1!
15
b11000 8
b11000 <
b10 ;
b10 >
13
01
0*
b100 7
b100 9
#136
0!
05
#138
1!
15
b100 8
b100 <
b1000 ;
b1000 >
b1 =
1,
0+
03
11
0)
1'
b10000 7
b0 9
#140
0!
05
#142
1!
15
b0 8
b0 <
b100 >
b10 =
0,
1+
12
01
b1100 7
b100000 9
#144
0!
05
#146
1!
15
b100000 8
b100000 <
b111 ;
1*
1)
1(
0'
b1011 7
b11100 9
#148
0!
05
#150
1!
15
b11100 8
b11100 <
b1000 ;
b1001 >
14
02
11
0*
0)
0(
1'
b10001 7
b1001000 9
#152
0!
05
#154
1!
15
b1001000 8
b1001000 <
b1010 ;
b101 >
b1 =
1,
0+
12
01
1)
b1111 7
b101 9
#156
0!
05
#158
1!
15
b101 8
b101 <
b111 ;
b100 >
b10 =
0,
1+
04
1*
1(
0'
b1011 7
b11100 9
#160
0!
05
#162
1!
15
b11100 8
b11100 <
b11 ;
b11 >
14
13
02
0(
b110 7
b1001 9
#164
0!
05
#166
1!
15
b1001 8
b1001 <
b1000 ;
b10 >
b1 =
1,
0+
04
0*
0)
1'
b1010 7
b110 9
#168
0!
05
#170
1!
15
b110 8
b110 <
b110 ;
b110 >
12
1)
1(
0'
b1100 7
b0 9
#172
0!
05
#174
1!
15
b0 8
b0 <
b1010 ;
b1001 >
b0 =
0,
14
03
02
11
0(
1'
b10011 7
b10011 9
#176
0!
05
#178
1!
15
b10011 8
b10011 <
b11 ;
b100 >
04
12
01
1*
0'
b111 7
b111 9
#180
0!
05
#182
1!
15
b111 8
b111 <
b11 >
b10 =
1+
14
13
02
b110 7
b1001 9
#184
0!
05
#186
1!
15
b1001 8
b1001 <
b10 ;
b10 >
04
0*
b100 7
b100 9
#188
0!
05
#190
1!
15
b100 8
b100 <
b111 ;
b11 >
b11 =
1,
14
1*
1(
b1010 7
b10 9
#192
0!
05
#194
1!
15
b10 8
b10 <
b1 ;
b10 >
b0 =
0,
0+
04
0)
0(
b11 7
b11 9
#196
0!
05
#198
1!
15
b11 8
b11 <
b10 ;
b110 >
b11 =
1,
1+
12
0*
1)
b1000 7
b0 9
#200
0!
05
#202
1!
15
b0 8
b0 <
